…
col <- c("gender","product_department", "traffic_source", "is_cancel", "deliver_to")

order_dat %>% mutate_at(col, as.factor)
```

```
## # A tibble: 99,581 × 9
##    order_id   age gender product_department traffic_source total_item
##       <int> <dbl> <fct>  <fct>              <fct>               <int>
##  1        2    41 M      Men                Search                  1
##  2        3    41 M      Men                Search                  1
##  3        4    41 M      Men                Search                  1
##  4        5    55 F      Women              Search                  1
##  5        6    31 M      Men                Search                  1
##  6        7    68 F      Women              Facebook                1
##  7        8    33 M      Men                Facebook               16
##  8       10    70 M      Men                Display                 1
##  9       12    15 F      Women              Search                  1
## 10       13    15 F      Women              Search                  1
## # ℹ 99,571 more rows
## # ℹ 3 more variables: total_amount <dbl>, is_cancel <fct>, deliver_to <fct>
```
…
